/home/u25726/git/afirmaauth/src/main/java/es/caib/autenticacio/afirma/DSSCertificateService.java
/home/u25726/git/afirmaauth/src/main/java/es/caib/autenticacio/afirma/Hola.java
/home/u25726/git/afirmaauth/src/main/java/es/caib/autenticacio/afirma/DSSCertificate.java
/home/u25726/git/afirmaauth/src/main/java/es/caib/autenticacio/afirma/AfirmaClientCertificateAuthenticatorFactory.java
/home/u25726/git/afirmaauth/src/main/java/es/caib/autenticacio/afirma/AfirmaClientCertificateAuthenticator.java
